{
  "Left Margin": 5,
  "Custom Left Margin": 0,
  "Right Margin": 999,
  "Custom Right Margin": 240,
  "Style Thread Stats": false,
  "Rounded Corners": true,
  "Underline All Links": false,
  "Show Banner": true,
  "Reduce Banner Opacity": true,
  "Show Board Banners": true,
  "Show Board Name": true,
  "Show Reply to Thread Button": true,
  "Show Checkboxes": false,
  "Show Blotter": false,
  "Show 4chan Ads": false,
  "Show Top Ad": true,
  "Show Middle Ad": true,
  "Show Bottom Ad": true,
  "Reduce Ad Opacity": false,
  "Show Navigation Links": true,
  "Show Top Links": true,
  "Show Bottom Links": true,
  "Show Previous/Next buttons": false,
  "Sidebar Position": 1,
  "Disable In Catalog View": false,
  "SS-like Sidebar": false,
  "Minimal Sidebar": true,
  "Autohide Style": 1,
  "Transparent QR": false,
  "Remove Background": false,
  "Remove Controls": false,
  "Expanding Form Inputs": true,
  "Force QR to Sidebar Size": false,
  "Hide Mascots in Catalog": false,
  "Mascots Overlap Posts": true,
  "Reduce Mascot Opacity": false,
  "Grayscale Mascots": false,
  "Fit Width": true,
  "Show Reply Header": true,
  "Show Post Info On Hover": false,
  "Show File Info": true,
  "Underline QuoteLinks": false,
  "Indent OP": false,
  "Allow Wrapping Around OP": false,
  "OP Background": true,
  "Recolor Even Replies": false,
  "Reduce Thumbnail Opacity": false,
  "Backlink Icons": false,
  "Backlinks on Bottom": false,
  "Borders": 2,
  "Margin Between Replies": "",
  "Post Message Margin": 2,
  "Justified Text": true,
  "Show Background": true,
  "Unified Thumbnail Size": false,
  "Show Header Background Gradient": true,
  "Show Header Shadow": true,
  "Highlight Current Board": true,
  "Highlight (OP) quotes": true,
  "Highlight (You) quotes": true,
  "Post Decoration Style": 0,
  "Post Decoration Width": 1,
  "Custom Decoration Width": 0,
  "Post Highlight Style": "solid",
  "Font Family": "sans-serif",
  "Font Size": 13,
  "Backlink Font Size": 9,
  "Bitmap Font": false,
  "Version Fix": 1,
  "Selected Theme": 13,
  "NSFW Theme": 13,
  "Mascots": [
    {
      "img": "https://i.imgtc.com/gGHghJr.png",
      "flip": false,
      "maxwidth": true,
      "offset": 0,
      "hoffset": 0,
      "name": "Best Girl (Aqua)",
      "width": "auto",
      "height": "auto"
    }
  ]
}